MT100,099PVR201907000004,7/26/2019 12:00:00 AM,IDR,1615000000.00,OPERATIONAL - HEAD OFFICE A/C 14489904,14489904,,,,,,,BNINIDJA,BNI,,,1252137234,YUKI CORP,,,OUR,,
MT100,099PVR201907000004,7/26/2019 12:00:00 AM,IDR,1615000000.00,OPERATIONAL - HEAD OFFICE A/C 14489904,14489904,,,,,,,BNINIDJA,BNI,,,1252137234,YUKI CORP,,,OUR,,
MT100,099PVR201907000004,7/26/2019 12:00:00 AM,IDR,1615000000.00,OPERATIONAL - HEAD OFFICE A/C 14489904,14489904,,,,,,,BNINIDJA,BNI,,,1252137234,YUKI CORP,,,OUR,,
